127.0.0.1 - - [14/Feb/2024:09:38:18 +0530] "GET / HTTP/1.1" 404 751
0:0:0:0:0:0:0:1 - - [14/Feb/2024:09:38:19 +0530] "GET /EmpWebApp/Login.html HTTP/1.1" 304 -
0:0:0:0:0:0:0:1 - - [14/Feb/2024:09:38:28 +0530] "POST /EmpWebApp/LoginServlet HTTP/1.1" 200 326
0:0:0:0:0:0:0:1 - - [14/Feb/2024:09:38:32 +0530] "GET /EmpWebApp/ HTTP/1.1" 404 765
0:0:0:0:0:0:0:1 - - [14/Feb/2024:09:38:37 +0530] "GET /EmpWebApp/GetAllEmployees HTTP/1.1" 500 1429
0:0:0:0:0:0:0:1 - - [14/Feb/2024:09:38:46 +0530] "GET /EmpWebApp/GetAllEmployees HTTP/1.1" 500 1429
0:0:0:0:0:0:0:1 - - [14/Feb/2024:09:38:52 +0530] "GET /EmpWebApp/ HTTP/1.1" 404 765
0:0:0:0:0:0:0:1 - - [14/Feb/2024:09:39:02 +0530] "GET /EmpWebApp/Register.html HTTP/1.1" 304 -
0:0:0:0:0:0:0:1 - - [14/Feb/2024:09:39:52 +0530] "POST /EmpWebApp/Register HTTP/1.1" 500 1390
0:0:0:0:0:0:0:1 - - [14/Feb/2024:09:40:33 +0530] "POST /EmpWebApp/Register HTTP/1.1" 500 1390
0:0:0:0:0:0:0:1 - - [14/Feb/2024:09:41:03 +0530] "POST /EmpWebApp/Register HTTP/1.1" 500 1390
127.0.0.1 - - [14/Feb/2024:09:41:58 +0530] "GET / HTTP/1.1" 404 751
0:0:0:0:0:0:0:1 - - [14/Feb/2024:09:43:53 +0530] "POST /EmpWebApp/Register HTTP/1.1" 200 635
0:0:0:0:0:0:0:1 - - [14/Feb/2024:09:44:41 +0530] "POST /EmpWebApp/LoginServlet HTTP/1.1" 200 251
0:0:0:0:0:0:0:1 - - [14/Feb/2024:09:44:52 +0530] "POST /EmpWebApp/LoginServlet HTTP/1.1" 200 654
0:0:0:0:0:0:0:1 - - [14/Feb/2024:09:45:28 +0530] "POST /EmpWebApp/LoginServlet HTTP/1.1" 200 326
0:0:0:0:0:0:0:1 - - [14/Feb/2024:09:45:29 +0530] "GET /EmpWebApp/GetAllEmployees HTTP/1.1" 200 1449
0:0:0:0:0:0:0:1 - - [14/Feb/2024:09:45:31 +0530] "GET /EmpWebApp/ HTTP/1.1" 404 765
0:0:0:0:0:0:0:1 - - [14/Feb/2024:09:46:30 +0530] "GET /EmpWebApp/ HTTP/1.1" 404 765
127.0.0.1 - - [14/Feb/2024:09:53:55 +0530] "GET / HTTP/1.1" 404 751
0:0:0:0:0:0:0:1 - - [14/Feb/2024:09:54:07 +0530] "POST /EmpWebApp/LoginServlet HTTP/1.1" 200 654
0:0:0:0:0:0:0:1 - - [14/Feb/2024:09:54:16 +0530] "POST /EmpWebApp/LoginServlet HTTP/1.1" 200 326
0:0:0:0:0:0:0:1 - - [14/Feb/2024:09:54:18 +0530] "GET /EmpWebApp/GetAllEmployees HTTP/1.1" 200 1449
0:0:0:0:0:0:0:1 - - [14/Feb/2024:09:54:19 +0530] "GET /EmpWebApp/ HTTP/1.1" 404 765
0:0:0:0:0:0:0:1 - - [14/Feb/2024:09:54:39 +0530] "GET /EmpWebApp/GetAllEmployees HTTP/1.1" 200 1449
0:0:0:0:0:0:0:1 - - [14/Feb/2024:09:54:41 +0530] "GET /EmpWebApp/ HTTP/1.1" 404 765
0:0:0:0:0:0:0:1 - - [14/Feb/2024:09:54:45 +0530] "GET /EmpWebApp/ HTTP/1.1" 404 765
127.0.0.1 - - [14/Feb/2024:10:26:30 +0530] "GET / HTTP/1.1" 404 751
0:0:0:0:0:0:0:1 - - [14/Feb/2024:10:26:40 +0530] "POST /EmpWebApp/LoginServlet HTTP/1.1" 200 346
0:0:0:0:0:0:0:1 - - [14/Feb/2024:10:26:44 +0530] "GET /EmpWebApp/GetAllEmployees HTTP/1.1" 200 1469
0:0:0:0:0:0:0:1 - - [14/Feb/2024:10:26:45 +0530] "GET /EmpWebApp/GetAllEmployees HTTP/1.1" 200 1469
0:0:0:0:0:0:0:1 - - [14/Feb/2024:10:26:46 +0530] "GET /EmpWebApp/GetEmployeeById.html HTTP/1.1" 200 395
0:0:0:0:0:0:0:1 - - [14/Feb/2024:10:26:53 +0530] "POST /EmpWebApp/GetEmployeeById HTTP/1.1" 200 638
0:0:0:0:0:0:0:1 - - [14/Feb/2024:10:27:04 +0530] "POST /EmpWebApp/LoginServlet HTTP/1.1" 200 346
0:0:0:0:0:0:0:1 - - [14/Feb/2024:10:27:09 +0530] "GET /EmpWebApp/HRHomePage HTTP/1.1" 200 348
0:0:0:0:0:0:0:1 - - [14/Feb/2024:10:51:54 +0530] "GET /EmpWebApp/GetEmployeeById.html HTTP/1.1" 304 -
0:0:0:0:0:0:0:1 - - [14/Feb/2024:10:56:25 +0530] "POST /EmpWebApp/GetEmployeeById HTTP/1.1" 200 631
0:0:0:0:0:0:0:1 - - [14/Feb/2024:10:57:09 +0530] "GET /EmpWebApp/GetEmployeeById.html HTTP/1.1" 304 -
0:0:0:0:0:0:0:1 - - [14/Feb/2024:10:57:26 +0530] "POST /EmpWebApp/GetEmployeeById HTTP/1.1" 200 631
